/*! -!../../../../node_modules/vue-loader/lib/loaders/templateLoader.js??vue-loader-options!../../../../node_modules/vue-loader/lib/index.js??vue-loader-options!./Register.vue?vue&type=template&id=51d1f69b&scoped=true& */

/*! -!../../../../node_modules/vue-style-loader/index.js!../../../../node_modules/css-loader/dist/cjs.js??clonedRuleSet-9[0].rules[0].use[1]!../../../../node_modules/vue-loader/lib/loaders/stylePostLoader.js!../../../../node_modules/postcss-loader/dist/cjs.js??clonedRuleSet-9[0].rules[0].use[2]!../../../../node_modules/vue-loader/lib/index.js??vue-loader-options!./Register.vue?vue&type=style&index=0&id=51d1f69b&scoped=true&lang=css& */

/*!**********************************************!*\
  !*** ./resources/js/pages/ppdb/Register.vue ***!
  \**********************************************/

/*!***********************************************************************!*\
  !*** ./resources/js/pages/ppdb/Register.vue?vue&type=script&lang=js& ***!
  \***********************************************************************/

/*!*****************************************************************************************!*\
  !*** ./resources/js/pages/ppdb/Register.vue?vue&type=template&id=51d1f69b&scoped=true& ***!
  \*****************************************************************************************/

/*!*******************************************************************************************************!*\
  !*** ./resources/js/pages/ppdb/Register.vue?vue&type=style&index=0&id=51d1f69b&scoped=true&lang=css& ***!
  \*******************************************************************************************************/

/*!***************************************************************************************************************************************************************************************************************!*\
  !*** ./node_modules/babel-loader/lib/index.js??clonedRuleSet-5[0].rules[0].use[0]!./node_modules/vue-loader/lib/index.js??vue-loader-options!./resources/js/pages/ppdb/Register.vue?vue&type=script&lang=js& ***!
  \***************************************************************************************************************************************************************************************************************/

/*!********************************************************************************************************************************************************************************************************************************!*\
  !*** ./node_modules/vue-loader/lib/loaders/templateLoader.js??vue-loader-options!./node_modules/vue-loader/lib/index.js??vue-loader-options!./resources/js/pages/ppdb/Register.vue?vue&type=template&id=51d1f69b&scoped=true& ***!
  \********************************************************************************************************************************************************************************************************************************/

/*!***********************************************************************************************************************************************************************************************************************************************************************************************************************************************************************************!*\
  !*** ./node_modules/css-loader/dist/cjs.js??clonedRuleSet-9[0].rules[0].use[1]!./node_modules/vue-loader/lib/loaders/stylePostLoader.js!./node_modules/postcss-loader/dist/cjs.js??clonedRuleSet-9[0].rules[0].use[2]!./node_modules/vue-loader/lib/index.js??vue-loader-options!./resources/js/pages/ppdb/Register.vue?vue&type=style&index=0&id=51d1f69b&scoped=true&lang=css& ***!
  \***********************************************************************************************************************************************************************************************************************************************************************************************************************************************************************************/

/*!****************************************************************************************************************************************************************************************************************************************************************************************************************************************************************************************************************************!*\
  !*** ./node_modules/vue-style-loader/index.js!./node_modules/css-loader/dist/cjs.js??clonedRuleSet-9[0].rules[0].use[1]!./node_modules/vue-loader/lib/loaders/stylePostLoader.js!./node_modules/postcss-loader/dist/cjs.js??clonedRuleSet-9[0].rules[0].use[2]!./node_modules/vue-loader/lib/index.js??vue-loader-options!./resources/js/pages/ppdb/Register.vue?vue&type=style&index=0&id=51d1f69b&scoped=true&lang=css& ***!
  \****************************************************************************************************************************************************************************************************************************************************************************************************************************************************************************************************************************/
