/*! -!../../../../../node_modules/vue-loader/lib/loaders/templateLoader.js??vue-loader-options!../../../../../node_modules/vue-loader/lib/index.js??vue-loader-options!./HomeData.vue?vue&type=template&id=ddac837c&scoped=true& */

/*!**********************************************************!*\
  !*** ./resources/js/pages/dashboard/master/HomeData.vue ***!
  \**********************************************************/

/*!***********************************************************************************!*\
  !*** ./resources/js/pages/dashboard/master/HomeData.vue?vue&type=script&lang=js& ***!
  \***********************************************************************************/

/*!*****************************************************************************************************!*\
  !*** ./resources/js/pages/dashboard/master/HomeData.vue?vue&type=template&id=ddac837c&scoped=true& ***!
  \*****************************************************************************************************/

/*!***************************************************************************************************************************************************************************************************************************!*\
  !*** ./node_modules/babel-loader/lib/index.js??clonedRuleSet-5[0].rules[0].use[0]!./node_modules/vue-loader/lib/index.js??vue-loader-options!./resources/js/pages/dashboard/master/HomeData.vue?vue&type=script&lang=js& ***!
  \***************************************************************************************************************************************************************************************************************************/

/*!********************************************************************************************************************************************************************************************************************************************!*\
  !*** ./node_modules/vue-loader/lib/loaders/templateLoader.js??vue-loader-options!./node_modules/vue-loader/lib/index.js??vue-loader-options!./resources/js/pages/dashboard/master/HomeData.vue?vue&type=template&id=ddac837c&scoped=true& ***!
  \********************************************************************************************************************************************************************************************************************************************/
